{
  "page": 1,
  "total_results": 4053,
  "total_pages": 203,
  "results": [
    {
      "popularity": 42.011,
      "vote_count": 5011,
      "video": false,
      "poster_path": "/lH3dsbxA4wLalWKNYpVldX8zfPP.jpg",
      "id": 268,
      "adult": false,
      "backdrop_path": "/2va32apQP97gvUxaMnL5wYt4CRB.jpg",
      "original_language": "en",
      "original_title": "Batman",
      "genre_ids": [28, 14],
      "title": "Batman",
      "vote_average": 7.2,
      "overview": "Having witnessed his parents' brutal murder as a child, millionaire philanthropist Bruce Wayne fights crime in Gotham City disguised as Batman, a costumed hero who strikes fear into the hearts of villains. But when a deformed madman who calls himself \"The Joker\" seizes control of Gotham's criminal underworld, Batman must face his most ruthless nemesis ever while protecting both his identity and his love interest, reporter Vicki Vale.",
      "release_date": "1989-06-23"
    },
    {
      "popularity": 41.39,
      "vote_count": 5447,
      "video": false,
      "poster_path": "/plcZXvI310FkbwIptvd6rqk63LP.jpg",
      "id": 10144,
      "adult": false,
      "backdrop_path": "/4w2uPtIo0lFSnQnWg0zVAqPJCLP.jpg",
      "original_language": "en",
      "original_title": "The Little Mermaid",
      "genre_ids": [16, 14, 10751],
      "title": "The Little Mermaid",
      "vote_average": 7.3,
      "overview": "This colorful adventure tells the story of an impetuous mermaid princess named Ariel who falls in love with the very human Prince Eric and puts everything on the line for the chance to be with him. Memorable songs and characters -- including the villainous sea witch Ursula.",
      "release_date": "1989-11-17"
    },
    {
      "popularity": 32.483,
      "vote_count": 865,
      "video": false,
      "poster_path": "/lVZ3r0iDwGejlCvFEvXGzhQB9ds.jpg",
      "id": 10495,
      "adult": false,
      "backdrop_path": "/9SPZml4PryC3Rz9EsLhrokcwoLR.jpg",
      "original_language": "en",
      "original_title": "The Karate Kid Part III",
      "genre_ids": [28, 12, 18, 10751],
      "title": "The Karate Kid Part III",
      "vote_average": 5.8,
      "overview": "Kreese, his life in tatters after his karate school was defeated by Daniel and Mr. Miyagi, visits Terry, a friend from Vietnam. Terry is a ruthless business man and a martial arts expert, and he vows to help Kreese take revenge on Daniel and Mr. Miyagi.",
      "release_date": "1989-06-29"
    },
    {
      "popularity": 26.885,
      "vote_count": 2702,
      "video": false,
      "poster_path": "/yObYPMA58DnTMvJooFW7GG6jWAt.jpg",
      "id": 2978,
      "adult": false,
      "backdrop_path": "/Ae4j8Y6EnjtPJxnIVmLMzcARZ7T.jpg",
      "original_language": "en",
      "original_title": "Ghostbusters II",
      "genre_ids": [35, 14],
      "title": "Ghostbusters II",
      "vote_average": 6.4,
      "overview": "Five years after they defeated Gozer, the Ghostbusters are out of business. When Dana begins to have ghost problems again, the boys come out of retirement to aid her and hopefully save New York City from a new paranormal threat.",
      "release_date": "1989-06-16"
    },
    {
      "popularity": 26.317,
      "id": 165,
      "video": false,
      "vote_count": 8807,
      "vote_average": 7.7,
      "title": "Back to the Future Part II",
      "release_date": "1989-11-22",
      "original_language": "en",
      "original_title": "Back to the Future Part II",
      "genre_ids": [12, 35, 10751, 878],
      "backdrop_path": "/skQN2UMQKQnOTmwplcYMx6ZF4jS.jpg",
      "adult": false,
      "overview": "Marty and Doc are at it again in this wacky sequel to the 1985 blockbuster as the time-traveling duo head to 2015 to nip some McFly family woes in the bud. But things go awry thanks to bully Biff Tannen and a pesky sports almanac. In a last-ditch attempt to set things straight, Marty finds himself bound for 1955 and face to face with his teenage parents -- again.",
      "poster_path": "/hQq8xZe5uLjFzSBt4LanNP7SQjl.jpg"
    },
    {
      "popularity": 25.406,
      "id": 16859,
      "video": false,
      "vote_count": 2279,
      "vote_average": 7.8,
      "title": "Kiki's Delivery Service",
      "release_date": "1989-07-29",
      "original_language": "ja",
      "original_title": "魔女の宅急便",
      "genre_ids": [16, 12, 18, 14, 10751],
      "backdrop_path": "/h5pAEVma835u8xoE60kmLVopLct.jpg",
      "adult": false,
      "overview": "A young witch, on her mandatory year of independent life, finds fitting into a new community difficult while she supports herself by running an air courier service.",
      "poster_path": "/7nO5DUMnGUuXrA4r2h6ESOKQRrx.jpg"
    },
    {
      "popularity": 25.167,
      "vote_count": 92,
      "video": false,
      "poster_path": "/ztnaaBao1ctl0xu6uphmANBI7ef.jpg",
      "id": 83088,
      "adult": false,
      "backdrop_path": "/2QbyWDvb6GylplTD77rNAZNepaU.jpg",
      "original_language": "ja",
      "original_title": "聖闘士星矢 最終聖戦の戦士たち",
      "genre_ids": [28, 16, 14],
      "title": "Saint Seiya: Warriors of the Final Holy Battle",
      "vote_average": 7,
      "overview": "The plot involves the coming of Lucifer to the Sanctuary, where his underlings systematically dispose of the surviving Gold Saints. Athena goes to Lucifer to ask for peace, placing herself in peril. The Bronze Saints must then come to her rescue, destroying Lucifer's Fallen Angels (Seima Tenshi in Japanese) in the process.",
      "release_date": "1989-03-18"
    },
    {
      "popularity": 25.003,
      "vote_count": 1063,
      "video": false,
      "poster_path": "/qcLGk8CkZW4rHK1kqD9Jdst5vd8.jpg",
      "id": 1648,
      "adult": false,
      "backdrop_path": "/ynYdEr7WskeM9dy6oNAQUGldAtE.jpg",
      "original_language": "en",
      "original_title": "Bill & Ted's Excellent Adventure",
      "genre_ids": [12, 35, 878],
      "title": "Bill & Ted's Excellent Adventure",
      "vote_average": 6.9,
      "overview": "Bill and Ted are high school buddies starting a band. They are also about to fail their history class—which means Ted would be sent to military school—but receive help from Rufus, a traveller from a future where their band is the foundation for a perfect society. With the use of Rufus' time machine, Bill and Ted travel to various points in history, returning with important figures to help them complete their final history presentation.",
      "release_date": "1989-02-17"
    },
    {
      "popularity": 23.423,
      "id": 207,
      "video": false,
      "vote_count": 7405,
      "vote_average": 8.3,
      "title": "Dead Poets Society",
      "release_date": "1989-06-02",
      "original_language": "en",
      "original_title": "Dead Poets Society",
      "genre_ids": [18],
      "backdrop_path": "/tJRToZBfb52NhF6SMGAe0bWQc6z.jpg",
      "adult": false,
      "overview": "At an elite, old-fashioned boarding school in New England, a passionate English teacher inspires his students to rebel against convention and seize the potential of every day, courting the disdain of the stern headmaster.",
      "poster_path": "/ai40gM7SUaGA6fthvsd87o8IQq4.jpg"
    },
    {
      "popularity": 22.54,
      "id": 10222,
      "video": false,
      "vote_count": 809,
      "vote_average": 6.7,
      "title": "Kickboxer",
      "release_date": "1989-04-20",
      "original_language": "en",
      "original_title": "Kickboxer",
      "genre_ids": [28, 53],
      "backdrop_path": "/hzPYbQTzfgyQF0xxs2l1nu62K1w.jpg",
      "adult": false,
      "overview": "If your enemy refuses to be humbled... Destroy him. Accompanied by his brother Kurt (Van Damme), American kickboxing champion Eric Sloane (Dennis Alexio), arrives in Thailand to defeat the Eastern warriors at their own sport. His opponent: ruthless fighter and Thai champion, Tong Po. Tong not only defeats Eric, he paralyzes him for life. Crazed with anger, Kurt vows revenge.",
      "poster_path": "/fUudhrs3HaJEtWpvgwdvjSlE5FS.jpg"
    },
    {
      "popularity": 22.395,
      "vote_count": 322,
      "video": false,
      "poster_path": "/ywtyEDTM2YO7qod7USNNwhrAfvA.jpg",
      "id": 28609,
      "adult": false,
      "backdrop_path": "/8IlHopi9VmXTHkDrTY78rwul4iM.jpg",
      "original_language": "ja",
      "original_title": "ドラゴンボールＺ オラの悟飯をかえせッ!!",
      "genre_ids": [28, 16, 14],
      "title": "Dragon Ball Z: Dead Zone",
      "vote_average": 6.5,
      "overview": "Gohan has been kidnapped! To make matters worse, the evil Garlic Jr. is gathering the Dragonballs to wish for immortality. Only then will Garlic Jr. be able to take over the Earth in order to gain revenge for the death of his father. Goku rushes to save Gohan, but arrives at the fortress just as Garlic Jr. summons the Eternal Dragon! Krillin and Piccolo try to help Goku, but their combined powers.",
      "release_date": "1989-07-15"
    },
    {
      "popularity": 21.83,
      "vote_count": 552,
      "video": false,
      "poster_path": "/s5U5JgPpgfTnbGxQF2bOlfqqz5b.jpg",
      "id": 10283,
      "adult": false,
      "backdrop_path": "/ymDpExuqGJIqJO8sje4NgK4PM3I.jpg",
      "original_language": "en",
      "original_title": "Friday the 13th Part VIII: Jason Takes Manhattan",
      "genre_ids": [27, 53],
      "title": "Friday the 13th Part VIII: Jason Takes Manhattan",
      "vote_average": 4.9,
      "overview": "A group of students on a graduation cruise bound for Manhattan soon realize they've got a stowaway aboard the ship: serial killer Jason Voorhees.",
      "release_date": "1989-07-28"
    },
    {
      "popularity": 21.099,
      "vote_count": 1157,
      "video": false,
      "poster_path": "/bLTBlfV0sJwrwwLJW4JgHwgHrJJ.jpg",
      "id": 9618,
      "adult": false,
      "backdrop_path": "/od2jRvuBM3rMGrZlfkILuffnkop.jpg",
      "original_language": "en",
      "original_title": "Tango & Cash",
      "genre_ids": [28, 12, 35],
      "title": "Tango & Cash",
      "vote_average": 6.3,
      "overview": "Ray Tango and Gabriel Cash are narcotics detectives who, while both being extremely successful, can't stand each other. Crime Lord Yves Perret, furious at the loss of income that Tango and Cash have caused him, frames the two for murder. Caught with the murder weapon on the scene of the crime, the two have no alibi. Thrown into prison with most of the criminals they helped convict, it appears that they are going to have to trust each other if they are to clear their names and catch the evil Perret.",
      "release_date": "1989-12-22"
    },
    {
      "popularity": 21.081,
      "id": 89,
      "video": false,
      "vote_count": 6724,
      "vote_average": 7.8,
      "title": "Indiana Jones and the Last Crusade",
      "release_date": "1989-05-24",
      "original_language": "en",
      "original_title": "Indiana Jones and the Last Crusade",
      "genre_ids": [12, 28],
      "backdrop_path": "/diTtDL61hIwozEGBwEsw7uA7qN9.jpg",
      "adult": false,
      "overview": "When Dr. Henry Jones Sr. suddenly goes missing while pursuing the Holy Grail, eminent archaeologist Indiana must team up with Marcus Brody, Sallah and Elsa Schneider to follow in his father's footsteps and stop the Nazis from recovering the power of eternal life.",
      "poster_path": "/sizg1AU8f8JDZX4QIgE4pjUMBvx.jpg"
    },
    {
      "popularity": 20.047,
      "vote_count": 1168,
      "video": false,
      "poster_path": "/6NIOOBHp59uEcyHVG0Du6TumOpY.jpg",
      "id": 709,
      "adult": false,
      "backdrop_path": "/p6VFbg5lhWj0RCgXf5dj6IDMPvt.jpg",
      "original_language": "en",
      "original_title": "Licence to Kill",
      "genre_ids": [28, 12, 53],
      "title": "Licence to Kill",
      "vote_average": 6.2,
      "overview": "When drug lord Franz Sanchez exacts his brutal vengeance on Bond's friend Felix Leiter, 007 resigns from the British Secret Service and begins a fierce vendetta against the master criminal. Bond won't be satisfied until Sanchez is defeated, and to accomplish this aim he allies himself with a beautiful pilot and Sanchez's sexy girlfriend.",
      "release_date": "1989-07-07"
    },
    {
      "popularity": 20.027,
      "vote_count": 129,
      "video": false,
      "poster_path": "/iAiQB05sFJhN8rmYuEl9lUZ1qWq.jpg",
      "id": 15138,
      "adult": false,
      "backdrop_path": "/craI0Nz5VqhSlUJqBf4ukYTsLaL.jpg",
      "original_language": "en",
      "original_title": "Little Monsters",
      "genre_ids": [12, 35, 14, 10751],
      "title": "Little Monsters",
      "vote_average": 5.8,
      "overview": "A young boy is scared of the monster under his bed. He asks his 6th grade brother to swap rooms for the night as a bet that the monster really exists. Soon the brother becomes friends with the monster and discovers a whole new world of fun and games under his bed where pulling pranks on kids and other monsters is the main attraction.",
      "release_date": "1989-08-25"
    },
    {
      "popularity": 19.73,
      "id": 2756,
      "video": false,
      "vote_count": 1741,
      "vote_average": 7.3,
      "title": "The Abyss",
      "release_date": "1989-08-09",
      "original_language": "en",
      "original_title": "The Abyss",
      "genre_ids": [12, 28, 53, 878],
      "backdrop_path": "/aPB3jFuMSoNFk2uDZ5tX5CIGaSX.jpg",
      "adult": false,
      "overview": "A civilian oil rig crew is recruited to conduct a search and rescue effort when a nuclear submarine mysteriously sinks. One diver soon finds himself on a spectacular odyssey 25,000 feet below the ocean's surface where he confronts a mysterious force that has the power to change the world or destroy it.",
      "poster_path": "/jel2BuDv7Bq4fuv2pUrTfiBm69o.jpg"
    },
    {
      "popularity": 19.122,
      "vote_count": 615,
      "video": false,
      "poster_path": "/sfBjw1TPwoN7p7bdRO9sgUQpt1q.jpg",
      "id": 11361,
      "adult": false,
      "backdrop_path": "/eGO3f5DPO52BbzBdHNYfRdi4Mb9.jpg",
      "original_language": "en",
      "original_title": "Halloween 5: The Revenge of Michael Myers",
      "genre_ids": [27, 53],
      "title": "Halloween 5: The Revenge of Michael Myers",
      "vote_average": 5.3,
      "overview": "Presumed dead after a shoot-out with the Haddonfield police, Michael Myers is secretly nursed back to health -- and returns a year later to kill again and once more targets his young niece, Jamie. Jamie is now recovering in the local children's hospital after attacking her stepmother and losing her voice. Her mental link with her evil uncle may be the key to uprooting her family tree.",
      "release_date": "1989-10-12"
    },
    {
      "popularity": 18.992,
      "vote_count": 707,
      "video": false,
      "poster_path": "/kizvpgXQfrAgN8FhOd87LbKk6kO.jpg",
      "id": 10160,
      "adult": false,
      "backdrop_path": "/vHgIvVAwo9rvmLzcCzecv76iz8L.jpg",
      "original_language": "en",
      "original_title": "A Nightmare on Elm Street: The Dream Child",
      "genre_ids": [27, 53],
      "title": "A Nightmare on Elm Street: The Dream Child",
      "vote_average": 5.4,
      "overview": "Alice, having survived the previous installment of the Nightmare series, finds the deadly dreams of Freddy Krueger starting once again. This time, the taunting murderer is striking through the sleeping mind of Alice's unborn child. His intention is to be \"born again\" into the real world. The only one who can stop Freddy is his dead mother, but can Alice free her spirit in time to save her own son?",
      "release_date": "1989-08-11"
    },
    {
      "popularity": 18.421,
      "vote_count": 1985,
      "video": false,
      "poster_path": "/omQOzahi2NIeiYznNxHFDvNbvo6.jpg",
      "id": 9354,
      "adult": false,
      "backdrop_path": "/orzPkQ7ZMso0i7S7bPMtdRk5OdF.jpg",
      "original_language": "en",
      "original_title": "Honey, I Shrunk the Kids",
      "genre_ids": [12, 35, 878, 10751],
      "title": "Honey, I Shrunk the Kids",
      "vote_average": 6.2,
      "overview": "The scientist father of a teenage girl and boy accidentally shrinks his and two other neighborhood teens to the size of insects. Now the teens must fight diminutive dangers as the father searches for them.",
      "release_date": "1989-06-23"
    }
  ]
}
